label,is_public
Etat,1
Région,1
Département,1
EPCI,1
Commune,1
Etablissement d'enseignement privé,0
Association(s),0
Etablissement privé commercial,0
Autre,-1
Etablissement Public,1
Privé non commercial,0
Multi-propriétaire,-1
