reference,label,family_reference
101,Bassin mixte de natation ,1
102,Bassin sportif de natation,1
103,Bassin ludique de natation ,1
104,Fosse à plongeon,1
105,Fosse à plongée,1
106,Bassin de réception de toboggan,1
199,Autres bassins de natation,1
201,Terrain de boules,2
202,Terrain de pétanque,2
203,Terrain de boules traditionnelles,2
301,Bowling,3
401,Circuit de vitesse,4
404,Circuit de motocross,4
405,Course sur piste,4
407,Terrain de trial,4
409,Piste de kart,4
410,Terrain de moto-ball,4
499,Autres circuits/pistes de sports mécaniques,4
501,Court de tennis,5
601,Anneau / piste de cyclisme,6
603,Espace trial,6
604,Piste de bicross,6
605,Piste de descente,6
606,Relais rando-vélo,6
607,Vélodrome,6
608,Terrain de cyclocross,6
609,Terrain de polo-vélo,6
699,Autres équipements de cyclisme,6
701,Domaine de ski alpin,7
703,Tremplin à ski,7
704,Piste de ski indoor,7
705,Domaine nordique,7
706,Piste de luge,7
799,Autres équipements et pistes de ski,7
801,Salle de cours collectifs,8
802,Salle de musculation/cardiotraining,8
803,Bassin d'exercices aquatiques,8
899,Autres équipements d'activité de forme et de santé,8
901,Carrière,9
902,Carrière de dressage/rond de longe,9
903,Manège,9
904,Parcours d'obstacle,9
905,Piste de course sur le plat,9
906,Structure de tourisme équestre,9
907,Terrain de horse-ball,9
908,Terrain de polo,9
909,Parcours de cross,9
999,Autres équipements équestres,9
1001,Stade d’athlétisme,10
1002,Aire de lancer,10
1003,Aire de saut,10
1004,Piste d'athlétisme isolée,10
1099,Autres équipements d'athlétisme,10
1101,Mur ou fronton mixte,11
1102,Mur à gauche,11
1103,Fronton place libre,11
1104,Trinquet,11
1105,Mur de tennis,11
1106,Jaï-Laï,11
1199,Autres murs et frontons,11
1201,Parcours d'initiation,12
1202,Parcours 18 trous,12
1204,Parcours 9 trous,12
1205,Practice,12
1206,Swingolf,12
1299,Autres parcours de golf,12
1301,Parcours sportif/santé,13
1401,Pas de tir à l'arc,14
1402,Pas de tir à la cible,14
1403,Pas de tir aux plateaux,14
1499,Autres pas de tir,14
1501,Aire de sports de glace sportive,15
1503,Aire de sports de glace ludique,15
1504,Anneau de vitesse,15
1505,Piste de bobsleigh,15
1506,Salle de curling,15
1599,Autres aires de sports de glace,15
1601,Plaine de jeux,16
1701,Plateau EPS/Multisports/city-stades,17
1702,But/panier isolé de sport collectif,17
1801,Dojo / Salle d'arts martiaux,18
1802,Salle de boxe,18
1899,Autres salles de combat,18
1901,Salle multisports,19
2001,Salle de basket,20
2002,Salle de beach-volley,20
2003,Salle de billard,20
2004,Salle de culturisme,20
2005,Salle de danse,20
2006,Salle de gymnastique sportive,20
2007,Salle de handball,20
2008,Salle de lutte,20
2009,Salle de patinage sur roulette,20
2010,Salle de raquetball ,20
2011,Salle de tennis de table,20
2012,Salle de trampoline,20
2013,Salle de volley ball,20
2014,Salle d'échecs,20
2015,Salle d'escrime,20
2016,Salle ou terrain de paintball,20
2017,Salle d'haltérophilie,20
2018,Salle ou terrain de squash,20
2019,Terrain de paddle,20
2020,Salle ou terrain de badminton,20
2023,Terrain de quilles,20
2024,Terrain de balle au tambourin,20
2026,Salle ou terrain de jorkyball,20
2027,Terrain de ballon au poing/long paume,20
2028,Terrain de soccer,20
2099,Autres salles ou terrains spécialisés,20
2101,Salles polyvalentes / des fêtes / non spécialisées,21
2201,Aire mixte (décollage et atterissage),22
2202,Aire de décollage,22
2203,Aire d'atterrissage,22
2204,Piste d’aérodrome / d'aéroport,22
2205,Site d'aérostation,22
2206,Piste ULM,22
2207,Site de glisse aérotractée,22
2299,Autres sites d'activités aériennes,22
2301,Site d'activités aquatiques et nautiques,23
2302,Baignade aménagée,23
2303,Circuit de motonautisme,23
2304,Stade de ski nautique,23
2305,Stade d’eau vive,23
2306,Stade d’aviron,23
2307,Stade de canoë-kayak de vitesse,23
2308,Stade mixte,23
2309,Terrain de kayak polo,23
2310,Point d'embarquement et de débarquement isolé,23
2314,Site de plongée,23
2315,Tank à ramer,23
2316,Téléski nautique,23
2317,Port de plaisance,23
2318,Zone de mouillage,23
2319,Dispositif de franchissement,23
2320,Site de pêche,23
2399,Autres sites d'activités aquatiques et nautiques,23
2401,Site de modélisme automobile,24
2402,Site de voile radio commandée,24
2403,Site d'aéromodélisme,24
2404,Site de modèle réduit (motonautisme),24
2499,Autres sites de modélisme,24
2501,Anneau de Roller,25
2502,Espace de vélo-freestyle,25
2503,Skate park,25
2599,Autres skates park & vélo Freestyle,25
2601,Structure Artificielle d'Escalade,26
2602,Salle de blocs artificiels d'escalade,26
2701,Terrain mixte,27
2702,Terrain de football,27
2703,Terrain de rugby,27
2704,Terrain de football américain,27
2705,Terrain de rugby à XIII,27
2706,Terrain de baseball /softball,27
2708,Terrain de cricket,27
2709,Terrain de hockey sur gazon,27
2799,Autres terrains de grand jeux,27
2801,Terrain de basket-ball,28
2802,Terrain de beach-volley,28
2803,Terrain de handball,28
2804,Terrain de volley-ball,28
2899,Autres terrains extérieurs de petits jeux collectifs,28
2901,Canyon,29
2902,Equipement pour saut à l’élastique,29
2903,Parcours Acrobatique en Hauteur/Site d'accrobranche,29
2904,Parcours de chasse / en campagne,29
2905,Parcours fixe de course d’orientation,29
2906,Piste de pulka / traineau à chiens,29
2907,Site d'escalade en falaise,29
2908,Site de spéléologie sportive et/ou éducative,29
2909,Site de char à voile,29
2910,Via ferrata / Via corda,29
2911,Refuge de montagne,29
2912,Boucle de randonnée,29
2913,Cascade de glace,29
2914,Site de blocs d'escalade,29
2915,Espace de pratique spéléologique,29
2999,Autres autres équipements sports de nature,29
3001,Arènes,30
3004,Club de plage,30
3006,Salle de spectacle / Zenith,30
3007,Hippodrome,30
3008,Simulateur de chute libre,30
3099,Autres autres équipements,30
