reference,label,is_active
1,Aéromodélisme,0
2,Aéronautique,0
3,Aérostation,0
4,"Aikido, Aikibudo, & Budo",0
5,Athlétisme,1
6,Aviron,0
7,Badminton,1
8,Baseball,0
9,Ballon au poing,0
10,Ball-Trap,0
11,Basket-Ball,1
12,Billard,0
13,Bowling et Sports de Quilles,1
14,Boxe,0
15,Boxe Américaine,0
16,Bridge,0
17,Canoe-Kayak,0
18,Char à Voile,1
19,Course Camarguaise,0
20,Course d’orientation,0
21,Course Landaise,0
22,Cyclisme,0
23,Cyclotourisme,0
24,Danse,1
25,Echecs,0
26,Equitation,0
27,Escrime,0
28,Etudes & Sports Sous Marins,0
29,Football,1
30,Football Américan,0
31,Full Contact et Disciplines Associées,0
32,Giraviation,0
33,Golf,1
34,Gymnastique,1
35,Gymnastique volontaire,1
36,"Halterophilie, Musculation, Force athlétique et Culturisme",1
37,Handball,1
38,Hockey,1
39,Javelot tir sur cible,0
40,Jeu de balle au tambourin,0
41,Jeu de paume,0
42,Joutes et sauvetage nautique,0
43,"Judo-jujitsu, kendo et disciplines associées",0
44,Karaté et arts martiaux et affinitaires,0
45,Kick boxing et disciplines associées,0
46,Longue paume,0
47,Lutte,0
48,Montagne – Escalade,1
49,Motocyclisme,0
50,Matonautique,0
51,Maythai et disciplines associées,0
52,Natation,1
53,Padle,0
54,Parachutisme,0
55,Pêche au coup,0
56,Pêche en mer,0
57,Pêche sportive à la mouche,0
58,Pentathlon moderne,0
59,Pelote basque,0
60,Pétanque et jeux provençaux,0
61,Planeur ULM,0
62,Randonnée pédestre,0
63,Roller Skating,1
64,Rugby,1
65,Rugby à XIII,1
66,"Savate, boxe française et disciplines associées",0
67,Sauvetage – Secourisme,0
68,Ski,0
69,Ski nautique,0
70,Spéléologie,0
71,Sport automobile,0
72,Sports boule,0
73,Sports de glace,1
74,Sports traîneau et ski pulka,0
75,Squash,1
76,Surf,0
77,Taekwondo et disciplines associées,0
78,Tai chi chuan et chi gong,0
79,Tennis,1
80,Tennis de table,0
81,Tir,0
82,Tir à l’arc,0
83,Triathlon,0
84,Twirling baton,0
85,Voile,0
86,Vol à voile,0
87,Vol libre,0
88,Volley-ball,1
89,Autres,1
